…
## $ tract_name           <dbl> 3504.00, 3505.00, 3527.01, 3527.02, 3528.00, 1660…
## $ town_name            <chr> "Waterbury", "Waterbury", "Waterbury", "Waterbury…
## $ town_fips_2020       <dbl> 900980070, 900980070, 900980070, 900980070, 90098…
## $ town_fips_2022       <dbl> 914080070, 914080070, 914080070, 914080070, 91408…
## $ county_name          <chr> "New Haven", "New Haven", "New Haven", "New Haven…
## $ county_fips_2020     <dbl> 9009, 9009, 9009, 9009, 9009, 9009, 9009, 9009, 9…
## $ ce_name_2022         <chr> "Naugatuck Valley Planning Region", "Naugatuck Va…
## $ ce_fips_2022         <dbl> 9140, 9140, 9140, 9140, 9140, 9170, 9170, 9140, 9…
## $ PUMA2020code         <dbl> 20601, 20601, 20601, 20601, 20601, 20503, 20504, …
## $ PUMA2020name         <chr> "Waterbury Town", "Waterbury Town", "Waterbury To…
## $ school_district_code <dbl> 151, 151, 151, 151, 151, 62, 76, 108, 151, 166, 6…
## $ school_district_name <chr> "Waterbury", "Waterbury", "Waterbury", "Waterbury…
## $ zip5_zcta2020        <chr> "06704", "06706", "06705", "06705", "06706", "065…

## # A tibble: 879 × 3
##    tract_fips_2020 tract_fips_2022 county_fips_2020
##    <chr>           <chr>           <chr>           
##  1 09009350400     09140350400     09009           
##  2 09009350500     09140350500     09009           
##  3 09009352701     09140352701     09009           
##  4 09009352702     09140352702     09009           
##  5 09009352800     09140352800     09009           
##  6 09009166002     09170166002     09009           
##  7 09009194202     09170194202     09009           
##  8 09009346102     09140346102     09009           
##  9 09009351100     09140351100     09009           
## 10 09009361300     09140361300     09009           
## # ℹ 869 more rows
…
