…
## Warning: Expected 2 pieces. Missing pieces filled with `NA` in 573431 rows [66191,
## 66192, 66193, 66194, 66195, 66196, 66197, 66198, 66199, 66200, 66201, 66202,
## 66203, 66204, 66205, 66206, 66207, 66208, 66209, 66210, ...].

trend_data_clean 

## # A tibble: 639,621 × 4
##    fipscode measureid rawvalue year[,1]
##    <chr>        <dbl>    <dbl>    <dbl>
##  1 01001            1    8724.      -15
##  2 01001            1    8269.      -14
##  3 01001            1    7817.      -13
##  4 01001            1    8937.      -12
##  5 01001            1    9427.      -11
##  6 01001            1    9563.      -10
##  7 01001            1    9327.       -9
##  8 01001            1    9577.       -8
##  9 01001            1    9712.       -7
## 10 01001            1    9647.       -6
## # ℹ 639,611 more rows
…
cnty_list <- trend_data_clean %>% 
  distinct(fipscode) %>% 
  pull(fipscode)

lm() for one county, one measure

We will use county ‘01001’ and measure 1 as an example. Our goal is to get estimates and p-values for intercept and x (i.e., ‘year’).

cnyt_test <- trend_data_clean %>% 
  filter(fipscode == "01001", measureid == 1)

cnyt_test

## # A tibble: 22 × 4
##    fipscode measureid rawvalue year[,1]
##    <chr>        <dbl>    <dbl>    <dbl>
##  1 01001            1    8724.      -15
##  2 01001            1    8269.      -14
##  3 01001            1    7817.      -13
##  4 01001            1    8937.      -12
##  5 01001            1    9427.      -11
##  6 01001            1    9563.      -10
##  7 01001            1    9327.       -9
##  8 01001            1    9577.       -8
##  9 01001            1    9712.       -7
## 10 01001            1    9647.       -6
## # ℹ 12 more rows
…
